<?xml version="1.0" encoding="UTF-8"?>
<svg width="62px" height="52px" viewBox="0 0 62 52" version="1.1" xmlns="http://www.w3.org/2000/svg" xmlns:xlink="http://www.w3.org/1999/xlink">
    <!-- Generator: Sketch 42 (36781) - http://www.bohemiancoding.com/sketch -->
    <title>noun_578541_cc</title>
    <desc>Created with Sketch.</desc>
    <defs></defs>
    <g id="Page-1" stroke="none" stroke-width="1" fill="none" fill-rule="evenodd">
        <g id="Home-v3" transform="translate(-230.000000, -768.000000)" fill="#005C75">
            <g id="Group" transform="translate(108.562500, 687.195312)">
                <g id="Page-1" transform="translate(71.204261, 28.713023)">
                    <g id="noun_578541_cc" transform="translate(49.233239, 52.091665)">
                        <g id="Group">
                            <g transform="translate(1.000000, 0.000000)">
                                <path d="M60.934,26.066 L59.482,45.177 C59.22,48.628 56.344,51.294 52.884,51.294 L9.116,51.294 C5.656,51.294 2.779,48.628 2.518,45.177 L1.066,26.066 C8.063,28.863 15.167,30.634 24.463,31.2 C25.252,34.069 27.88,36.178 31.001,36.178 C34.121,36.178 36.75,34.069 37.539,31.2 C46.833,30.634 53.938,28.863 60.934,26.066 Z" id="Shape"></path>
                                <path d="M61.553,17.915 L61.262,21.75 C61.071,21.836 60.877,21.921 60.682,22.005 C53.91,24.919 46.828,26.767 37.468,27.35 C36.6,24.605 34.033,22.615 31,22.615 C27.968,22.615 25.4,24.606 24.532,27.35 C15.172,26.768 8.09,24.92 1.318,22.006 C1.123,21.921 0.929,21.837 0.738,21.751 L0.447,17.916 C0.155,14.074 3.193,10.796 7.045,10.796 L54.954,10.796 C58.807,10.795 61.845,14.074 61.553,17.915 Z" id="Shape"></path>
                                <circle id="Oval" cx="31" cy="29.397" r="3.782"></circle>
                                <path d="M42.999,8.783 L39.307,8.783 L39.307,7.629 C39.307,5.848 37.858,4.399 36.076,4.399 L25.923,4.399 C24.142,4.399 22.692,5.848 22.692,7.629 L22.692,8.783 L19,8.783 L19,7.629 C19,3.812 22.106,0.706 25.923,0.706 L36.076,0.706 C39.893,0.706 42.999,3.812 42.999,7.629 L42.999,8.783 Z" id="Shape"></path>
                            </g>
                        </g>
                    </g>
                </g>
            </g>
        </g>
    </g>
</svg>